module gitlab.com/konfka/go-rpc-exchange

go 1.19

require (
	github.com/Masterminds/squirrel v1.5.4
	github.com/go-chi/chi/v5 v5.0.10
	github.com/go-sql-driver/mysql v1.6.0
	github.com/google/uuid v1.3.0
	github.com/jmoiron/sqlx v1.3.5
	github.com/joho/godotenv v1.5.1
	github.com/json-iterator/go v1.1.12
	github.com/lib/pq v1.10.9
	github.com/ptflp/godecoder v0.0.1
	github.com/rabbitmq/amqp091-go v1.8.1
	github.com/valyala/quicktemplate v1.7.0
	github.com/volatiletech/null/v8 v8.1.2
	go.uber.org/zap v1.25.0
	golang.org/x/sync v0.3.0
	google.golang.org/grpc v1.57.0
	google.golang.org/protobuf v1.30.0
)

require (
	github.com/friendsofgo/errors v0.9.2 // indirect
	github.com/gofrs/uuid v3.2.0+incompatible // indirect
	github.com/golang/protobuf v1.5.3 // indirect
	github.com/lann/builder v0.0.0-20180802200727-47ae307949d0 // indirect
	github.com/lann/ps v0.0.0-20150810152359-62de8c46ede0 // indirect
	github.com/modern-go/concurrent v0.0.0-20180228061459-e0a39a4cb421 // indirect
	github.com/modern-go/reflect2 v1.0.2 // indirect
	github.com/valyala/bytebufferpool v1.0.0 // indirect
	github.com/volatiletech/inflect v0.0.1 // indirect
	github.com/volatiletech/randomize v0.0.1 // indirect
	github.com/volatiletech/strmangle v0.0.1 // indirect
	go.uber.org/multierr v1.10.0 // indirect
	golang.org/x/net v0.9.0 // indirect
	golang.org/x/sys v0.7.0 // indirect
	golang.org/x/text v0.9.0 // indirect
	golang.org/x/xerrors v0.0.0-20191204190536-9bdfabe68543 // indirect
	google.golang.org/genproto/googleapis/rpc v0.0.0-20230525234030-28d5490b6b19 // indirect
)
